<?xml version="1.0" encoding="UTF-8" standalone="no"?>
<svg xml:space="preserve" height="512" viewBox="0 0 512 512" width="512" version="1.1" xmlns:xlink="http://www.w3.org/1999/xlink" xmlns="http://www.w3.org/2000/svg" xmlns:osb="http://www.openswatchbook.org/uri/2009/osb" y="0px" x="0px" enable-background="new 0 0 100 100"><defs><linearGradient id="c" gradientUnits="userSpaceOnUse" x2="98.79" x1="512" y2="418"><stop style="stop-color:#65a9f2" offset="0"/><stop style="stop-color:#65a4f2" offset="1"/></linearGradient><linearGradient id="b" y2="466.2" gradientUnits="userSpaceOnUse" y1="260.2" x2="319.3" x1="60.22"><stop style="stop-color:#71879f" offset="0"/><stop style="stop-color:#3d57b8" offset="1"/></linearGradient></defs><style type="text/css">
	.st0{fill:#010202;}
</style>
<rect style="enable-background:accumulate;fill:url(#c)" height="512" width="512" y="0" x="0"/>
<rect style="opacity:.37;enable-background:accumulate;fill:url(#b)" height="512" width="512" y="0" x="0"/>
<path style="stroke-width:3.589;fill:#e1e39b" d="m374.4 282c-8.599 20.47-20.47 30.72-23.45 31.31-6.542 0-11.97 5.078-12.39 11.6-3.43 52.05-67.38 76.73-82.76 76.73-15.37 0-79.33-24.67-82.76-76.73-0.4306-6.528-5.534-11.58-12.07-11.58-3.205-0.664-14.41-10.62-23.11-31.33-3.147-7.501-6.36-21.02-7.253-30.11 1.457 1.242 3.162 2.82 5.11 4.82 3.865 3.962 9.711 4.734 14.41 2.394 2.738 2.699 5.523 5.115 8.136 7.723-3.908-73.57-0.3733-103.7 15.16-103.7 11.63 0 24.29 9.88 82.39 9.88 58.09 0 70.24-9.88 82.39-9.88 16.82 0 15.5 52.51 15.5 103.7 2.168-1.267 5.193-3.718 8.398-7.411 4.583 1.978 10.09 1.091 13.79-2.699 2.103-2.153 3.912-3.811 5.44-5.096-0.7142 9.126-3.84 23.03-6.923 30.37z"/><circle cy="283.4" cx="304.2" r="20.19" style="stroke-width:3.589;fill:#111"/><circle cy="283.4" cx="207.6" r="20.19" style="stroke-width:3.589;fill:#111"/><path style="stroke-width:3.589;fill:#111" d="m402.1 230.8c-3.424-5.154-8.897-8.107-15.02-8.107-2.94 0-6.015 0.7142-9.234 2.071 1.113-6.001 1.769-12.69 1.769-20.13 0-88-40.59-119-123.1-119-82.55 0-123.9 42.17-123.9 119 0 7.77 0.4702 14.37 1.296 20.06-3.151-1.306-6.173-2.003-9.059-2.003-6.08 0-11.51 2.925-14.9 8.024-11.58 17.42 4.995 60.55 5.172 60.97 7.202 17.14 19.73 36.57 34.32 43.72 10.35 62.66 84.05 91.15 106.5 91.15 22.48 0 96.18-28.49 106.5-91.14 14.27-6.876 27.25-25.37 34.97-43.74 0.1759-0.4128 16.31-43.33 4.643-60.88zm-27.55 51.26c-8.599 20.47-20.47 30.72-23.45 31.31-6.542 0-11.97 5.078-12.39 11.6-3.43 52.05-67.38 76.73-82.76 76.73-15.37 0-79.33-24.67-82.76-76.73-0.4306-6.528-5.534-11.58-12.07-11.58-3.205-0.664-14.41-10.62-23.11-31.33-3.147-7.501-6.36-21.02-7.253-30.11 1.457 1.242 3.162 2.82 5.11 4.82 3.865 3.962 9.711 4.734 14.41 2.394 2.738 2.699 5.523 5.115 8.136 7.723-3.908-73.57-0.3733-103.7 15.16-103.7 11.63 0 24.29 9.88 82.39 9.88 58.09 0 70.24-9.88 82.39-9.88 16.82 0 15.5 52.51 15.5 103.7 2.168-1.267 5.193-3.718 8.398-7.411 4.583 1.978 10.09 1.091 13.79-2.699 2.103-2.153 3.912-3.811 5.44-5.096-0.7142 9.126-3.84 23.03-6.923 30.37z"/><path style="stroke-width:3.589;fill:#111" d="m269.6 225.2 13.46 23.72c52.71-7.576 54.63-53.03 54.63-53.03s-15.48 37.23-68.09 29.31z"/><path style="stroke-width:3.589;fill:#111" d="m242.1 225.2-13.46 23.72c-52.71-7.576-54.63-53.03-54.63-53.03s15.47 37.23 68.08 29.31z"/></svg>
