<?xml version="1.0" encoding="UTF-8" standalone="no"?>
<svg xmlns="http://www.w3.org/2000/svg" height="40" width="40" version="1.1" viewBox="0 0 40 40">
 <path style="stroke-width:1.064" d="m39.49 13.1c0-1.766-1.436-3.213-3.213-3.213h-28.4c-4.074 0.000919-7.377 3.303-7.378 7.379v3.978c-0.000919 0.02343 0 0.06021 0 0.08915-0.0083 2.242 1.186 3.972 2.835 5.176 4.941 3.593 14.18 3.581 14.23 3.605h0.0041c0.1503 0 0.2932-0.04918 0.4118-0.1416 1.93-1.507 3.634-2.313 4.848-2.741 0.6053-0.2147 1.088-0.335 1.414-0.4003 0.1626-0.03309 0.2854-0.05193 0.3649-0.06388 0.08042-0.01053 0.1034-0.01103 0.1034-0.01195 0.2408-0.01976 0.4536-0.1687 0.5542-0.3902 0.2969-0.659 0.4449-1.25 0.4449-1.794 0.01287-0.9214-0.471-1.656-1.069-2.064-1.125-0.7735-2.566-0.807-3.25-0.8198-0.2293 0-0.3727 0.0097-0.3851 0.01103-0.08456 0.0055-0.1696 0.0285-0.245 0.06618-2.481 1.216-3.979 1.525-4.789 1.522-0.5318-0.0018-0.7602-0.1204-0.8525-0.182-0.0087-0.0055-0.01563-0.01053-0.02206-0.01608l-0.28-1.8h19.99c1.775-0.000919 3.215-1.44 3.215-3.216-0.0055-0.7119-0.2298-1.398-0.6218-1.962 1.23-0.4513 2.109-1.624 2.111-3.012zm-2.545 1.757h-13.9c-0.3686 0-0.6659 0.2983-0.6659 0.6663 0 0.3682 0.2973 0.6659 0.6659 0.6659h12.42c0.6687 0.2565 1.22 1.071 1.21 1.882-0.0018 1.04-0.8438 1.882-1.883 1.883h-20.77c-0.1953 0-0.3809 0.0864-0.5074 0.2349-0.1264 0.1484-0.1815 0.3447-0.1503 0.5382l0.4431 2.734 0.03952 0.1406c0.04413 0.2036 0.6416 1.05 2.125 1.016 1.114-0.0032 2.732-0.3829 5.249-1.597 0.04504-0.0014 0.102-0.0023 0.17-0.0023 0.5703-0.01287 1.857 0.1062 2.48 0.574 0.3304 0.2514 0.4968 0.4825 0.5088 0.9775 0 0.2335-0.05148 0.5368-0.1912 0.9137-0.9913 0.1761-3.641 0.8488-6.837 3.293-0.375-0.01011-1.195-0.04136-2.284-0.1379-2.271-0.1999-5.687-0.6949-8.459-1.844-1.386-0.5721-2.604-1.305-3.448-2.204-0.8424-0.9036-1.329-1.936-1.333-3.259v-4.069c0.006-3.34 2.708-6.041 6.046-6.048h8.995c0.0032 0 0.0055 0.00092 0.0087 0.00092h19.4c1.039 0.000919 1.881 0.8428 1.883 1.883 0.000919 0.8024-0.5041 1.487-1.213 1.757z"/>
</svg>
